[gd_scene load_steps=2 format=2]

[ext_resource path="res://addons/nframework/modules/zone_random_point/zone_random_point.gd" type="Script" id=1]

[node name="Zones" type="Node2D"]
script = ExtResource( 1 )
