[gd_scene load_steps=2 format=2]

[ext_resource path="res://scenes/new_game.gd" type="Script" id=1]

[node name="Game" type="Control"]
anchor_right = 1.0
anchor_bottom = 1.0
script = ExtResource( 1 )
