[gd_scene load_steps=3 format=2]

[ext_resource path="res://character/entity.tscn" type="PackedScene" id=1]
[ext_resource path="res://character/character.gd" type="Script" id=2]

[node name="Character" groups=["character"] instance=ExtResource( 1 )]
script = ExtResource( 2 )

[node name="Sword" parent="Sprite" index="0"]
visible = false

[node name="Staff" parent="Sprite" index="1"]
visible = false

[node name="Fire" parent="." index="8"]
frame = 2
