[gd_scene load_steps=3 format=2]

[ext_resource path="res://addons/nframework/nui/combo/label_value.tscn" type="PackedScene" id=1]
[ext_resource path="res://addons/nframework/tools/angle_visualizer.gd" type="Script" id=2]

[node name="AngleVisualizer" type="Control"]
script = ExtResource( 2 )

[node name="Display" type="VBoxContainer" parent="."]
margin_left = 100.0
margin_top = -100.0
margin_right = 186.0
margin_bottom = -60.0

[node name="Radians" parent="Display" instance=ExtResource( 1 )]
margin_right = 86.0
value = "0"

[node name="Degrees" parent="Display" instance=ExtResource( 1 )]
margin_top = 18.0
margin_right = 86.0
margin_bottom = 32.0
value = "0"
