[gd_scene load_steps=4 format=2]

[ext_resource path="res://addons/nframework/modules/camera/shake.gd" type="Script" id=1]

[sub_resource type="OpenSimplexNoise" id=3]
period = 0.1

[sub_resource type="NoiseTexture" id=2]
noise = SubResource( 3 )

[node name="Shake" type="Node"]
script = ExtResource( 1 )

[node name="NoiseVisualizer" type="Sprite" parent="."]
visible = false
texture = SubResource( 2 )
