[gd_scene load_steps=5 format=2]

[ext_resource path="res://examples/trails/smoke_trail_static.gd" type="Script" id=1]
[ext_resource path="res://examples/trails/trail.png" type="Texture" id=2]

[sub_resource type="Curve" id=1]
_data = [ Vector2( 0, 1 ), 0.0, 0.0570611, 0, 0, Vector2( 1, 0.293103 ), -0.0406198, 0.0, 0, 0 ]

[sub_resource type="Gradient" id=2]
offsets = PoolRealArray( 0.0110497, 0.729282, 1 )
colors = PoolColorArray( 1, 1, 1, 0, 1, 1, 1, 0.273743, 1, 1, 1, 1 )

[node name="SmokeTrailStatic" type="Line2D"]
width_curve = SubResource( 1 )
default_color = Color( 0.4, 0.501961, 1, 1 )
gradient = SubResource( 2 )
texture = ExtResource( 2 )
texture_mode = 2
script = ExtResource( 1 )

[node name="Decay" type="Tween" parent="."]

[connection signal="tween_all_completed" from="Decay" to="." method="_on_Decay_tween_all_completed"]
