[gd_resource type="DynamicFont" load_steps=2 format=2]

[ext_resource path="res://addons/nframework/assets/fonts/managore/m3x6.ttf" type="DynamicFontData" id=1]

[resource]
font_data = ExtResource( 1 )
